Exploratory Data Analysis in R: Case Study
…
Filtering rows

The vote column in the dataset has a number that represents that countrys vote:

1 = Yes 2 = Abstain 3 = No 8 = Not present 9 = Not a member One step of data cleaning is removing observations (rows) that youre not interested in. In this case, you want to remove Not present and Not a member.

Instructions Load the dplyr package. Print the votes table. Filter out rows where the vote recorded is not present or not a member, leaving cases where it is yes, abstain, or no.

# Load the dplyr package
library("dplyr")

# Print the votes dataset
votes

## # A tibble: 508,929 x 4
##     rcid session  vote ccode
##    <dbl>   <dbl> <dbl> <int>
##  1    46       2     1     2
##  2    46       2     1    20
##  3    46       2     9    31
##  4    46       2     1    40
##  5    46       2     1    41
##  6    46       2     1    42
##  7    46       2     9    51
##  8    46       2     9    52
##  9    46       2     9    53
## 10    46       2     9    54
## # ... with 508,919 more rows

# Filter for votes that are "yes", "abstain", or "no"
votes %>% filter(vote <= 3)

## # A tibble: 353,547 x 4
##     rcid session  vote ccode
##    <dbl>   <dbl> <dbl> <int>
##  1    46       2     1     2
##  2    46       2     1    20
##  3    46       2     1    40
##  4    46       2     1    41
##  5    46       2     1    42
##  6    46       2     1    70
##  7    46       2     1    90
##  8    46       2     1    91
##  9    46       2     1    92
## 10    46       2     1    93
## # ... with 353,537 more rows

Adding a year column

The next step of data cleaning is manipulating your variables (columns) to make them more informative.

In this case, you have a session column that is hard to interpret intuitively. But since the UN started voting in 1946, and holds one session per year, you can get the year of a UN resolution by adding 1945 to the session number.

Instructions Use mutate() to add a year column by adding 1945 to the session column.

# Add another %>% step to add a year column
votes %>%
  filter(vote <= 3) %>%
  mutate(year = session + 1945 )

## # A tibble: 353,547 x 5
##     rcid session  vote ccode  year
##    <dbl>   <dbl> <dbl> <int> <dbl>
##  1    46       2     1     2  1947
##  2    46       2     1    20  1947
##  3    46       2     1    40  1947
##  4    46       2     1    41  1947
##  5    46       2     1    42  1947
##  6    46       2     1    70  1947
##  7    46       2     1    90  1947
##  8    46       2     1    91  1947
##  9    46       2     1    92  1947
## 10    46       2     1    93  1947
## # ... with 353,537 more rows
…
Summarizing the full dataset

In this analysis, youre going to focus on % of votes that are yes as a metric for the agreeableness of countries.

Youll start by finding this summary for the entire dataset: the fraction of all votes in their history that were yes. Note that within your call to summarize(), you can use n() to find the total number of votes and mean(vote == 1) to find the fraction of yes votes.

Instructions Print the votes_processed dataset that you created in the previous exercise. Summarize the dataset using the summarize() function to create two columns: total: with the number of votes percent_yes: the percentage of yes votes

# Print votes_processed
votes_processed

## # A tibble: 353,547 x 6
##     rcid session  vote ccode  year                  country
##    <dbl>   <dbl> <dbl> <int> <dbl>                    <chr>
##  1    46       2     1     2  1947 United States of America
##  2    46       2     1    20  1947                   Canada
##  3    46       2     1    40  1947                     Cuba
##  4    46       2     1    41  1947                    Haiti
##  5    46       2     1    42  1947       Dominican Republic
##  6    46       2     1    70  1947                   Mexico
##  7    46       2     1    90  1947                Guatemala
##  8    46       2     1    91  1947                 Honduras
##  9    46       2     1    92  1947              El Salvador
## 10    46       2     1    93  1947                Nicaragua
## # ... with 353,537 more rows
…
Summarizing by year

The summarize() function is especially useful because it can be used within groups.

For example, you might like to know how much the average agreeableness of countries changed from year to year. To examine this, you can use group_by() to perform your summary not for the entire dataset, but within each year.

Instructions Add a group_by() to your code to summarize() within each year.

# Change this code to summarize by year
votes_processed %>%
  group_by(year) %>%
  summarize(total = n(),
            percent_yes = mean(vote == 1))

## # A tibble: 34 x 3
##     year total percent_yes
##    <dbl> <int>       <dbl>
##  1  1947  2039   0.5693968
##  2  1949  3469   0.4375901
##  3  1951  1434   0.5850767
##  4  1953  1537   0.6317502
##  5  1955  2169   0.6947902
##  6  1957  2708   0.6085672
##  7  1959  4326   0.5880721
##  8  1961  7482   0.5729751
##  9  1963  3308   0.7294438
## 10  1965  4382   0.7078959
## # ... with 24 more rows
…
For example, you might be especially interested in the countries that voted yes least often, or the ones that voted yes most often.

Instructions Print the by_country dataset created in the last exercise. Use arrange() to sort the countries in ascending order of percent_yes. Arrange the countries by the same variable, but in descending order.

# You have the votes summarized by country
by_country <- votes_processed %>%
  group_by(country) %>%
  summarize(total = n(),
            percent_yes = mean(vote == 1))

# Print the by_country dataset
by_country

## # A tibble: 200 x 3
##                country total percent_yes
##                  <chr> <int>       <dbl>
##  1         Afghanistan  2373   0.8592499
##  2             Albania  1695   0.7174041
##  3             Algeria  2213   0.8992318
##  4             Andorra   719   0.6383866
##  5              Angola  1431   0.9238295
##  6 Antigua and Barbuda  1302   0.9124424
##  7           Argentina  2553   0.7677242
##  8             Armenia   758   0.7467018
##  9           Australia  2575   0.5565049
## 10             Austria  2389   0.6224362
## # ... with 190 more rows

# Sort in ascending order of percent_yes
by_country %>%
arrange(percent_yes)

## # A tibble: 200 x 3
##                                                 country total percent_yes
##                                                   <chr> <int>       <dbl>
##  1                                             Zanzibar     2   0.0000000
##  2                             United States of America  2568   0.2694704
##  3                                                Palau   369   0.3387534
##  4                                               Israel  2380   0.3407563
##  5                          Federal Republic of Germany  1075   0.3972093
##  6 United Kingdom of Great Britain and Northern Ireland  2558   0.4167318
##  7                                               France  2527   0.4265928
##  8                     Micronesia (Federated States of)   724   0.4419890
##  9                                     Marshall Islands   757   0.4914135
## 10                                              Belgium  2568   0.4922118
## # ... with 190 more rows

# Now sort in descending order
by_country %>%
arrange(desc(percent_yes))

## # A tibble: 200 x 3
##                  country total percent_yes
##                    <chr> <int>       <dbl>
##  1 Sao Tome and Principe  1091   0.9761687
##  2            Seychelles   881   0.9750284
##  3              Djibouti  1598   0.9612015
##  4         Guinea Bissau  1538   0.9603381
##  5           Timor-Leste   326   0.9570552
##  6             Mauritius  1831   0.9497542
##  7              Zimbabwe  1361   0.9493020
##  8               Comoros  1133   0.9470432
##  9  United Arab Emirates  1934   0.9467425
## 10            Mozambique  1701   0.9465021
## # ... with 190 more rows

Filtering summarized output

In the last exercise, you may have noticed that the country that voted least frequently, Zanzibar, had only 2 votes in the entire dataset. You certainly cant make any substantial conclusions based on that data!

Typically in a progressive analysis, when you find that a few of your observations have very little data while others have plenty, you set some threshold to filter them out.

Instructions Use filter() to remove from the sorted data countries that have fewer than 100 votes.

# Filter out countries with fewer than 100 votes
by_country %>%
  filter(total > 100) %>%
  arrange(percent_yes)

## # A tibble: 197 x 3
##                                                 country total percent_yes
##                                                   <chr> <int>       <dbl>
##  1                             United States of America  2568   0.2694704
##  2                                                Palau   369   0.3387534
##  3                                               Israel  2380   0.3407563
##  4                          Federal Republic of Germany  1075   0.3972093
##  5 United Kingdom of Great Britain and Northern Ireland  2558   0.4167318
##  6                                               France  2527   0.4265928
##  7                     Micronesia (Federated States of)   724   0.4419890
##  8                                     Marshall Islands   757   0.4914135
##  9                                              Belgium  2568   0.4922118
## 10                                               Canada  2576   0.5081522
## # ... with 187 more rows
…
Plotting a line over time

In the last chapter, you learned how to summarize() the votes dataset by year, particularly the percentage of votes in each year that were yes.

Youll now use the ggplot2 package to turn your results into a visualization of the percentage of yes votes over time.

Instructions The by_year dataset has the number of votes and percentage of yes votes each year.

Load the ggplot2 package. Use ggplot() with the geom_line layer to create a line plot with year on the x-axis and percent_yes on the y-axis.

# Define by_year
votes_processed

## # A tibble: 353,547 x 6
##     rcid session  vote ccode  year                  country
##    <dbl>   <dbl> <dbl> <int> <dbl>                    <chr>
##  1    46       2     1     2  1947 United States of America
##  2    46       2     1    20  1947                   Canada
##  3    46       2     1    40  1947                     Cuba
##  4    46       2     1    41  1947                    Haiti
##  5    46       2     1    42  1947       Dominican Republic
##  6    46       2     1    70  1947                   Mexico
##  7    46       2     1    90  1947                Guatemala
##  8    46       2     1    91  1947                 Honduras
##  9    46       2     1    92  1947              El Salvador
## 10    46       2     1    93  1947                Nicaragua
## # ... with 353,537 more rows

by_year <- votes_processed %>%
  group_by(year) %>%
  summarize(total = n(),
            percent_yes = mean(vote == 1))

by_year

## # A tibble: 34 x 3
##     year total percent_yes
##    <dbl> <int>       <dbl>
##  1  1947  2039   0.5693968
##  2  1949  3469   0.4375901
##  3  1951  1434   0.5850767
##  4  1953  1537   0.6317502
##  5  1955  2169   0.6947902
##  6  1957  2708   0.6085672
##  7  1959  4326   0.5880721
##  8  1961  7482   0.5729751
##  9  1963  3308   0.7294438
## 10  1965  4382   0.7078959
## # ... with 24 more rows
…
Summarizing by year and country

Youre more interested in trends of voting within specific countries than you are in the overall trend. So instead of summarizing just by year, summarize by both year and country, constructing a dataset that shows what fraction of the time each country votes yes in each year.

Instructions Change the code in the editor to group by both year and country rather than just by year. Save the result as by_year_country.

# Group by year and country: by_year_country
by_year_country <- votes_processed %>%
                      group_by(year, country) %>%
                      summarize(total = n(),
                                percent_yes = mean(vote == 1))

by_year_country

## # A tibble: 4,744 x 4
## # Groups:   year [?]
##     year                          country total percent_yes
##    <dbl>                            <chr> <int>       <dbl>
##  1  1947                      Afghanistan    34   0.3823529
##  2  1947                        Argentina    38   0.5789474
##  3  1947                        Australia    38   0.5526316
##  4  1947                          Belarus    38   0.5000000
##  5  1947                          Belgium    38   0.6052632
##  6  1947 Bolivia (Plurinational State of)    37   0.5945946
##  7  1947                           Brazil    38   0.6578947
##  8  1947                           Canada    38   0.6052632
##  9  1947                            Chile    38   0.6578947
## 10  1947                         Colombia    35   0.5428571
## # ... with 4,734 more rows
…
A linear regression is a model that lets us examine how one variable changes with respect to another by fitting a best fit line. It is done with the lm() function in R.

Here, youll fit a linear regression to just the percentage of yes votes from the United States.

Instructions Print the US_by_year data to the console. Using just the US data in US_by_year, use lm() to run a linear regression predicting percent_yes from year. Save this to a variable US_fit. Summarize US_fit using the summary() function.

# Percentage of yes votes from the US by year: US_by_year
US_by_year <- by_year_country %>%
  filter(country == "United States of America")

# Print the US_by_year data
US_by_year

## # A tibble: 34 x 4
##     year                  country total percent_yes
##    <dbl>                    <chr> <int>       <dbl>
##  1  1947 United States of America    38   0.7105263
##  2  1949 United States of America    64   0.2812500
##  3  1951 United States of America    25   0.4000000
##  4  1953 United States of America    26   0.5000000
##  5  1955 United States of America    37   0.6216216
##  6  1957 United States of America    34   0.6470588
##  7  1959 United States of America    54   0.4259259
##  8  1961 United States of America    75   0.5066667
##  9  1963 United States of America    32   0.5000000
## 10  1965 United States of America    41   0.3658537
## # ... with 24 more rows
…
We can easily compare the two models now.

Nesting a data frame

Right now, the by_year_country data frame has one row per country-vote pair. So that you can model each country individually, youre going to nest all columns besides country, which will result in a data frame with one row per country. The data for each individual country will then be stored in a list column called data.

Instructions Load the tidyr package. Use the nest() function to nest all the columns in by_year_country except country.

# Load the tidyr package
library("tidyr")
# Nest all columns besides country
by_year_country %>%
    nest(-country)

## # A tibble: 200 x 2
##                             country              data
##                               <chr>            <list>
##  1                      Afghanistan <tibble [34 x 3]>
##  2                        Argentina <tibble [34 x 3]>
##  3                        Australia <tibble [34 x 3]>
##  4                          Belarus <tibble [34 x 3]>
##  5                          Belgium <tibble [34 x 3]>
##  6 Bolivia (Plurinational State of) <tibble [34 x 3]>
##  7                           Brazil <tibble [34 x 3]>
##  8                           Canada <tibble [34 x 3]>
##  9                            Chile <tibble [34 x 3]>
## 10                         Colombia <tibble [34 x 3]>
## # ... with 190 more rows
…
                       country              data
                         <chr>            <list>

1 Afghanistan  2 Argentina  3 Australia  4 Belarus  5 Belgium  6 Bolivia, Plurinational State of  7 Brazil  8 Canada  9 Chile  10 Colombia  You can use nested$data to access this list column and double brackets to access a particular element. For example, nested$data[[1]] would give you the data frame with Afghanistans voting history (the percent_yes per year), since Afghanistan is the first row of the table.

Instructions Print the data frame from the data column that contains the data for Brazil.

# All countries are nested besides country
nested <- by_year_country %>%
  nest(-country)

# Print the nested data for Brazil
nested$data[[7]]

## # A tibble: 34 x 3
##     year total percent_yes
##    <dbl> <int>       <dbl>
##  1  1947    38   0.6578947
##  2  1949    64   0.4687500
##  3  1951    25   0.6400000
##  4  1953    26   0.7307692
##  5  1955    37   0.7297297
##  6  1957    34   0.7352941
##  7  1959    54   0.5370370
##  8  1961    76   0.5526316
##  9  1963    32   0.7812500
## 10  1965    41   0.6097561
## # ... with 24 more rows
…
The opposite of the nest() operation is the unnest() operation. This takes each of the data frames in the list column and brings those rows back to the main data frame.

In this exercise, you are just undoing the nest() operation. In the next section, youll learn how to fit a model in between these nesting and unnesting steps that makes this process useful.

Instructions Unnest the data list column, so that the table again has one row for each country-year pair, much like by_year_country.

# All countries are nested besides country
nested <- by_year_country %>%
  nest(-country)

# Unnest the data column to return it to its original form
unnest(nested)

## # A tibble: 4,744 x 4
##        country  year total percent_yes
##          <chr> <dbl> <int>       <dbl>
##  1 Afghanistan  1947    34   0.3823529
##  2 Afghanistan  1949    51   0.6078431
##  3 Afghanistan  1951    25   0.7600000
##  4 Afghanistan  1953    26   0.7692308
##  5 Afghanistan  1955    37   0.7297297
##  6 Afghanistan  1957    34   0.5294118
##  7 Afghanistan  1959    54   0.6111111
##  8 Afghanistan  1961    76   0.6052632
##  9 Afghanistan  1963    32   0.7812500
## 10 Afghanistan  1965    40   0.8500000
## # ... with 4,734 more rows
…
map(data, ~ lm(percent_yes ~ year, data = .)) where . represents each individual item from the data column in by_year_country. Recall that each item in the data column is a dataset that pertains to a specific country.

Instructions Load the tidyr and purrr packages. After nesting, use the map() function within a mutate() to perform a linear regression on each dataset (i.e.each item in the data column in by_year_country) modeling percent_yes as a function of year. Save the results to the model column.

# Load tidyr and purrr
library("tidyr")
library("purrr")

# Perform a linear regression on each item in the data column
by_year_country %>%
  nest(-country) %>%
  mutate(model = map(data, ~lm(percent_yes ~ year, .)))

## # A tibble: 200 x 3
##                             country              data    model
##                               <chr>            <list>   <list>
##  1                      Afghanistan <tibble [34 x 3]> <S3: lm>
##  2                        Argentina <tibble [34 x 3]> <S3: lm>
##  3                        Australia <tibble [34 x 3]> <S3: lm>
##  4                          Belarus <tibble [34 x 3]> <S3: lm>
##  5                          Belgium <tibble [34 x 3]> <S3: lm>
##  6 Bolivia (Plurinational State of) <tibble [34 x 3]> <S3: lm>
##  7                           Brazil <tibble [34 x 3]> <S3: lm>
##  8                           Canada <tibble [34 x 3]> <S3: lm>
##  9                            Chile <tibble [34 x 3]> <S3: lm>
## 10                         Colombia <tibble [34 x 3]> <S3: lm>
## # ... with 190 more rows
…
